NFL_Fantasy_Scores_And_Player_Performance
…
## Scraping QB projections from 
##  https://football.fantasysports.yahoo.com/f1/48938/players?sort=PTS&sdir=1&status=A&pos=QB&stat1=S_PS_2018&jsenabled=1&count=0 
## Scraping RB projections from 
##  https://football.fantasysports.yahoo.com/f1/48938/players?sort=PTS&sdir=1&status=A&pos=RB&stat1=S_PS_2018&jsenabled=1&count=0 
## Scraping WR projections from 
##  https://football.fantasysports.yahoo.com/f1/48938/players?sort=PTS&sdir=1&status=A&pos=WR&stat1=S_PS_2018&jsenabled=1&count=0 
## Scraping TE projections from 
##  https://football.fantasysports.yahoo.com/f1/48938/players?sort=PTS&sdir=1&status=A&pos=TE&stat1=S_PS_2018&jsenabled=1&count=0 
## Scraping DST projections from 
##  https://football.fantasysports.yahoo.com/f1/48938/players?sort=PTS&sdir=1&status=A&pos=DEF&stat1=S_PS_2018&jsenabled=1&count=0

head(player_data)

## $QB
## # A tibble: 134 x 45
##    data_src id    src_id z     note  player team  pos   status_game_opp
##    <chr>    <chr> <chr>  <chr> <chr> <chr>  <chr> <chr> <chr>          
##  1 Yahoo    13116 30123  "\ue~ Play~ P. Ma~ KC    QB    "Sun 10:00 am ~
##  2 Yahoo    10273 24788  "\ue~ Play~ C. Ne~ Car   QB    "Sun 10:00 am ~
##  3 Yahoo    7401  6770   "\ue~ Play~ B. Ro~ Pit   QB    "Sun 1:25 pm  ~
##  4 Yahoo    4925  5479   "\ue~ Play~ D. Br~ NO    QB    "Sun 10:00 am ~
##  5 Yahoo    12611 29235  "\ue~ Play~ J. Go~ LAR   QB    "Sun 5:20 pm  ~
##  6 Yahoo    9099  8780   "\ue~ Play~ M. Ry~ Atl   QB    "Sun 10:00 am ~
##  7 Yahoo    10695 25711  "\ue~ Play~ A. Lu~ Ind   QB    "Sun 10:00 am ~
##  8 Yahoo    7394  6763   "\ue~ Play~ P. Ri~ LAC   QB    Sun 1:05 pm   ~
##  9 Yahoo    13113 30125  "\ue~ Play~ D. Wa~ Hou   QB    "Sun 10:00 am ~
## 10 Yahoo    10703 25785  "\ue~ Play~ R. Wi~ Sea   QB    "Mon 5:15 pm  ~
## # ... with 124 more rows, and 36 more variables: z1 <chr>, forecast <chr>,
## #   owner <chr>, games <dbl>, bye <dbl>, site_pts <dbl>,
## #   fantasy_percent_owned <chr>, rankings_proj <chr>,
## #   rankings_actual <chr>, pass_att <dbl>, pass_comp <dbl>,
## #   pass_inc <dbl>, pass_yds <dbl>, pass_tds <dbl>, pass_int <dbl>,
## #   passing_pick_six <chr>, sacks <dbl>, pass_1st <dbl>,
## #   pass_40_yds <dbl>, rush_att <dbl>, rush_yds <dbl>, rush_tds <dbl>,
## #   rush_1st <dbl>, rush_40_yds <dbl>, rec_tgt <dbl>, rec <dbl>,
## #   rec_yds <dbl>, rec_tds <dbl>, rec_1st <dbl>, rec_40_yds <dbl>,
## #   ret_yds <dbl>, ret_tds <dbl>, two_pts <dbl>, fumbles_total <dbl>,
## #   fumbles_lost <dbl>, na <lgl>
## 
## $RB
## # A tibble: 281 x 45
##    data_src id    src_id z     note  player team  pos   status_game_opp
##    <chr>    <chr> <chr>  <chr> <chr> <chr>  <chr> <chr> <chr>          
##  1 Yahoo    12150 28398  "\ue~ Play~ T. Gu~ LAR   RB    "Sun 5:20 pm  ~
##  2 Yahoo    13604 30972  "\ue~ Play~ S. Ba~ NYG   RB    "Sun 10:00 am ~
##  3 Yahoo    13130 30121  "\ue~ Play~ C. Mc~ Car   RB    "Sun 10:00 am ~
##  4 Yahoo    13132 30180  "\ue~ Play~ A. Ka~ NO    RB    "Sun 10:00 am ~
##  5 Yahoo    12625 29238  "\ue~ Play~ E. El~ Dal   RB    "Sun 1:25 pm  ~
##  6 Yahoo    13146 30218  "\ue~ Play~ J. Co~ Pit   RB    O              
##  7 Yahoo    12151 28403  "\ue~ Play~ M. Go~ LAC   RB    O              
##  8 Yahoo    11747 27658  "\ue~ Play~ J. Wh~ NE    RB    "Sun 10:00 am ~
##  9 Yahoo    13614 31379  "\ue~ Play~ P. Li~ Den   RB    "Sun 1:05 pm  ~
## 10 Yahoo    12171 28474  "\ue~ Play~ D. Jo~ Ari   RB    "Sun 1:25 pm  ~
## # ... with 271 more rows, and 36 more variables: z1 <chr>, forecast <chr>,
## #   owner <chr>, games <dbl>, bye <dbl>, site_pts <dbl>,
## #   fantasy_percent_owned <chr>, rankings_proj <chr>,
## #   rankings_actual <chr>, pass_att <dbl>, pass_comp <dbl>,
## #   pass_inc <dbl>, pass_yds <dbl>, pass_tds <dbl>, pass_int <dbl>,
## #   passing_pick_six <chr>, sacks <dbl>, pass_1st <dbl>,
## #   pass_40_yds <dbl>, rush_att <dbl>, rush_yds <dbl>, rush_tds <dbl>,
## #   rush_1st <dbl>, rush_40_yds <dbl>, rec_tgt <dbl>, rec <dbl>,
## #   rec_yds <dbl>, rec_tds <dbl>, rec_1st <dbl>, rec_40_yds <dbl>,
## #   ret_yds <dbl>, ret_tds <dbl>, two_pts <dbl>, fumbles_total <dbl>,
## #   fumbles_lost <dbl>, na <lgl>
## 
## $WR
## # A tibble: 446 x 45
##    data_src id    src_id z     note  player team  pos   status_game_opp
##    <chr>    <chr> <chr>  <chr> <chr> <chr>  <chr> <chr> <chr>          
##  1 Yahoo    11938 27277  "\ue~ Play~ A. Th~ Min   WR    "Mon 5:15 pm  ~
##  2 Yahoo    12801 29399  "\ue~ Play~ T. Hi~ KC    WR    "Sun 10:00 am ~
##  3 Yahoo    9988  24171  "\ue~ Play~ A. Br~ Pit   WR    "Sun 1:25 pm  ~
##  4 Yahoo    11675 27581  "\ue~ Play~ D. Ad~ GB    WR    "Sun 10:00 am ~
##  5 Yahoo    12652 29281  "\ue~ Play~ M. Th~ NO    WR    "Sun 10:00 am ~
##  6 Yahoo    11232 26650  "\ue~ Play~ D. Ho~ Hou   WR    "Sun 10:00 am ~
##  7 Yahoo    10271 24793  "\ue~ Play~ J. Jo~ Atl   WR    "Sun 10:00 am ~
##  8 Yahoo    11679 27540  "\ue~ New ~ O. Be~ NYG   WR    O              
##  9 Yahoo    11222 26699  "\ue~ Play~ K. Al~ LAC   WR    Sun 1:05 pm   ~
## 10 Yahoo    13156 30175  "\ue~ Play~ J. Sm~ Pit   WR    "Sun 1:25 pm  ~
## # ... with 436 more rows, and 36 more variables: z1 <chr>, forecast <chr>,
## #   owner <chr>, games <dbl>, bye <dbl>, site_pts <dbl>,
## #   fantasy_percent_owned <chr>, rankings_proj <chr>,
## #   rankings_actual <chr>, pass_att <dbl>, pass_comp <dbl>,
## #   pass_inc <dbl>, pass_yds <dbl>, pass_tds <dbl>, pass_int <dbl>,
## #   passing_pick_six <chr>, sacks <dbl>, pass_1st <dbl>,
## #   pass_40_yds <dbl>, rush_att <dbl>, rush_yds <dbl>, rush_tds <dbl>,
## #   rush_1st <dbl>, rush_40_yds <dbl>, rec_tgt <dbl>, rec <dbl>,
## #   rec_yds <dbl>, rec_tds <dbl>, rec_1st <dbl>, rec_40_yds <dbl>,
## #   ret_yds <dbl>, ret_tds <dbl>, two_pts <dbl>, fumbles_total <dbl>,
## #   fumbles_lost <dbl>, na <lgl>
## 
## $TE
## # A tibble: 246 x 45
##    data_src id    src_id z     note  player team  pos   status_game_opp
##    <chr>    <chr> <chr>  <chr> <chr> <chr>  <chr> <chr> <chr>          
##  1 Yahoo    11244 26686  "\ue~ Play~ T. Ke~ KC    TE    "Sun 10:00 am ~
##  2 Yahoo    11247 26658  "\ue~ Play~ Z. Er~ Phi   TE    "Sun 1:25 pm  ~
##  3 Yahoo    11695 27538  "\ue~ Play~ E. Eb~ Ind   TE    "Sun 10:00 am ~
##  4 Yahoo    13299 30259  "\ue~ Play~ G. Ki~ SF    TE    "Sun 1:05 pm  ~
##  5 Yahoo    9474  9353   "\ue~ Play~ J. Co~ Oak   TE    "Sun 1:25 pm  ~
##  6 Yahoo    12677 29315  "\ue~ Play~ A. Ho~ Atl   TE    "Sun 10:00 am ~
##  7 Yahoo    11705 27789  "\ue~ Play~ T. Bu~ Chi   TE    "Sun 5:20 pm  ~
##  8 Yahoo    11248 26708  "\ue~ Play~ J. Re~ Was   TE    "Sun 10:00 am ~
##  9 Yahoo    9902  24017  "\ue~ Play~ R. Gr~ NE    TE    "Sun 10:00 am ~
## 10 Yahoo    13192 30142  "\ue~ Play~ D. Nj~ Cle   TE    "Sun 10:00 am ~
## # ... with 236 more rows, and 36 more variables: z1 <chr>, forecast <chr>,
## #   owner <chr>, games <dbl>, bye <dbl>, site_pts <dbl>,
## #   fantasy_percent_owned <chr>, rankings_proj <chr>,
## #   rankings_actual <chr>, pass_att <dbl>, pass_comp <dbl>,
## #   pass_inc <dbl>, pass_yds <dbl>, pass_tds <dbl>, pass_int <dbl>,
## #   passing_pick_six <chr>, sacks <dbl>, pass_1st <dbl>,
## #   pass_40_yds <dbl>, rush_att <dbl>, rush_yds <dbl>, rush_tds <dbl>,
## #   rush_1st <dbl>, rush_40_yds <dbl>, rec_tgt <dbl>, rec <dbl>,
## #   rec_yds <dbl>, rec_tds <dbl>, rec_1st <dbl>, rec_40_yds <dbl>,
## #   ret_yds <dbl>, ret_tds <dbl>, two_pts <dbl>, fumbles_total <dbl>,
## #   fumbles_lost <dbl>, na <lgl>
## 
## $DST
## # A tibble: 32 x 31
##    data_src id    src_id z     note  player team  pos   status_game_opp
##    <chr>    <chr> <chr>  <chr> <chr> <chr>  <chr> <chr> <chr>          
##  1 Yahoo    0521  3      "\ue~ No n~ Chica~ Chi   DEF   "Sun 5:20 pm  ~
##  2 Yahoo    0532  34     "\ue~ No n~ Houst~ Hou   DEF   "Sun 10:00 am ~
##  3 Yahoo    0528  14     "\ue~ No n~ Los A~ LAR   DEF   "Sun 5:20 pm  ~
##  4 Yahoo    0511  7      "\ue~ No n~ Denver Den   DEF   "Sun 1:05 pm  ~
##  5 Yahoo    0524  16     "\ue~ No n~ Minne~ Min   DEF   "Mon 5:15 pm  ~
##  6 Yahoo    0504  17     "\ue~ No n~ New E~ NE    DEF   "Sun 10:00 am ~
##  7 Yahoo    0512  12     "\ue~ No n~ Kansa~ KC    DEF   "Sun 10:00 am ~
##  8 Yahoo    0531  33     "\ue~ No n~ Balti~ Bal   DEF   "Sun 10:00 am ~
##  9 Yahoo    0503  15     "\ue~ No n~ Miami  Mia   DEF   "Sun 10:00 am ~
## 10 Yahoo    0520  28     "\ue~ No n~ Washi~ Was   DEF   "Sun 10:00 am ~
## # ... with 22 more rows, and 22 more variables: z1 <chr>, owner <chr>,
## #   games <dbl>, bye <dbl>, site_pts <dbl>, fantasy_percent_owned <chr>,
## #   rankings_proj <chr>, rankings_actual <chr>, dst_pts_allowed <dbl>,
## #   dst_sacks <dbl>, dst_safety <dbl>, dst_tfl <dbl>, dst_int <dbl>,
## #   dst_fum_rec <dbl>, dst_td <dbl>, dst_blk <dbl>, dst_4_down <dbl>,
## #   dst_yds_allowed <dbl>, dst_3_out <dbl>, dst_ret_yds <dbl>,
## #   dst_ret_tds <dbl>, na <lgl>
…
